[gd_scene load_steps=3 format=2]

[ext_resource path="res://Traps/BrokenFloor/BrokenFloor.gd" type="Script" id=1]

[sub_resource type="RectangleShape2D" id=1]
extents = Vector2( 8.58536, 8.91877 )

[node name="BrokenFloor" type="Node2D"]

[node name="Area2D" type="Area2D" parent="."]
script = ExtResource( 1 )

[node name="Timer" type="Timer" parent="Area2D"]

[node name="CollisionShape2D" type="CollisionShape2D" parent="Area2D"]
shape = SubResource( 1 )

[node name="Sprite" type="Sprite" parent="Area2D"]
scale = Vector2( 1.5, 1.5 )
[connection signal="body_entered" from="Area2D" to="Area2D" method="_on_Area2D_body_entered"]
[connection signal="body_exited" from="Area2D" to="Area2D" method="_on_Area2D_body_exited"]
[connection signal="timeout" from="Area2D/Timer" to="Area2D" method="_on_Timer_timeout"]
