[gd_scene load_steps=4 format=2]

[ext_resource path="res://Actor/Enemies/LivingSkull/LivingSkull.gd" type="Script" id=1]
[ext_resource path="res://Actor/Enemies/LivingSkull/skull.png" type="Texture" id=2]

[sub_resource type="CircleShape2D" id=1]
radius = 7.61951

[node name="LivingSkull" type="KinematicBody2D" groups=[
"enemie",
]]
script = ExtResource( 1 )

[node name="CollisionShape2D" type="CollisionShape2D" parent="."]
position = Vector2( 0, 3.18 )
shape = SubResource( 1 )

[node name="Sprite" type="Sprite" parent="."]
scale = Vector2( 1.5, 1.5 )
texture = ExtResource( 2 )
