[gd_scene load_steps=8 format=2]

[ext_resource path="res://Actor/Enemies/Imp/Imp.gd" type="Script" id=1]
[ext_resource path="res://Actor/Enemies/Imp/Sprites/imp_run_anim_f0.png" type="Texture" id=2]
[ext_resource path="res://Actor/Enemies/Imp/Sprites/imp_run_anim_f1.png" type="Texture" id=3]
[ext_resource path="res://Actor/Enemies/Imp/Sprites/imp_run_anim_f2.png" type="Texture" id=4]
[ext_resource path="res://Actor/Enemies/Imp/Sprites/imp_run_anim_f3.png" type="Texture" id=5]

[sub_resource type="CapsuleShape2D" id=1]
radius = 6.66667
height = 0.0

[sub_resource type="SpriteFrames" id=2]
animations = [ {
"frames": [ ExtResource( 2 ), ExtResource( 3 ), ExtResource( 4 ), ExtResource( 5 ) ],
"loop": true,
"name": "run",
"speed": 18.0
} ]

[node name="KinematicBody2D" type="KinematicBody2D" groups=[
"enemie",
]]
scale = Vector2( 1.5, 1.5 )
script = ExtResource( 1 )
__meta__ = {
"_edit_group_": true
}

[node name="CollisionShape2D" type="CollisionShape2D" parent="."]
shape = SubResource( 1 )

[node name="AnimatedSprite" type="AnimatedSprite" parent="."]
frames = SubResource( 2 )
animation = "run"
frame = 1
playing = true
