[gd_scene load_steps=3 format=2]

[ext_resource path="res://Rooms/Change Room/Change_Room.gd" type="Script" id=1]

[sub_resource type="RectangleShape2D" id=1]
extents = Vector2( 7.20667, 6.52898 )

[node name="change_room" type="Node2D"]

[node name="Area2D" type="Area2D" parent="."]
script = ExtResource( 1 )

[node name="CollisionShape2D" type="CollisionShape2D" parent="Area2D"]
shape = SubResource( 1 )
[connection signal="body_entered" from="Area2D" to="Area2D" method="_on_Area2D_body_entered"]
