[gd_scene load_steps=11 format=2]

[ext_resource path="res://TesTiles.tres" type="TileSet" id=1]
[ext_resource path="res://Actor/Player/Player.tscn" type="PackedScene" id=2]
[ext_resource path="res://Traps/Thorns/thorns_nochange.tscn" type="PackedScene" id=3]
[ext_resource path="res://Rooms/Change Room/change_room.tscn" type="PackedScene" id=4]
[ext_resource path="res://Traps/Thorns/thorns.tscn" type="PackedScene" id=5]
[ext_resource path="res://Traps/BrokenFloor/BrokenFloor.tscn" type="PackedScene" id=6]
[ext_resource path="res://Traps/EvilChest/EvilChest.tscn" type="PackedScene" id=7]
[ext_resource path="res://System/HUD/hud_node.tscn" type="PackedScene" id=8]
[ext_resource path="res://Itens/Coin/Coin.tscn" type="PackedScene" id=9]
[ext_resource path="res://Actor/Enemies/LivingSkull/LivingSkull.tscn" type="PackedScene" id=10]

[node name="Node2D" type="Control"]
anchor_left = 0.5
anchor_top = 0.5
anchor_right = 0.5
anchor_bottom = 0.5
margin_left = -460.0
margin_top = -300.0
margin_right = -420.0
margin_bottom = -260.0

[node name="floor" type="TileMap" parent="."]
scale = Vector2( 1.5, 1.5 )
tile_set = ExtResource( 1 )
cell_size = Vector2( 16, 16 )
format = 1
tile_data = PoolIntArray( 65549, 10, 0, 65550, 1, 0, 65552, 0, 0, 65553, 10, 0, 65554, 10, 0, 65555, 10, 0, 65556, 10, 0, 65557, 10, 0, 65558, 10, 0, 65559, 10, 0, 65560, 10, 0, 65561, 10, 0, 65562, 10, 0, 65563, 10, 0, 131085, 8, 0, 131086, 7, 0, 131087, 13, 0, 131088, 6, 0, 131089, 21, 0, 131090, 21, 0, 131091, 8, 0, 131092, 8, 0, 131093, 8, 0, 131094, 8, 0, 131095, 21, 0, 131096, 8, 0, 131097, 9, 0, 131098, 8, 0, 131099, 8, 0, 196621, 13, 0, 196622, 13, 0, 196623, 13, 0, 196624, 13, 0, 196625, 13, 0, 196626, 13, 0, 196627, 13, 0, 196628, 13, 0, 196629, 13, 0, 196630, 13, 0, 196631, 13, 0, 196634, 13, 0, 196635, 13, 0, 262157, 13, 0, 262158, 13, 0, 262159, 13, 0, 262160, 13, 0, 262161, 13, 0, 262162, 13, 0, 262163, 13, 0, 262164, 13, 0, 262166, 13, 0, 262167, 13, 0, 262168, 13, 0, 262169, 13, 0, 262170, 13, 0, 262171, 13, 0, 327693, 13, 0, 327694, 13, 0, 327695, 13, 0, 327696, 13, 0, 327697, 13, 0, 327698, 13, 0, 327699, 13, 0, 327700, 13, 0, 327701, 13, 0, 327702, 13, 0, 327703, 13, 0, 327704, 13, 0, 327705, 13, 0, 327706, 13, 0, 327707, 13, 0, 393229, 13, 0, 393230, 13, 0, 393231, 13, 0, 393232, 13, 0, 393233, 13, 0, 393234, 13, 0, 393235, 13, 0, 393236, 13, 0, 393237, 13, 0, 393238, 13, 0, 393239, 13, 0, 393240, 13, 0, 393241, 13, 0, 393242, 13, 0, 393243, 13, 0, 458765, 13, 0, 458766, 13, 0, 458767, 13, 0, 458768, 13, 0, 458769, 13, 0, 458770, 13, 0, 458771, 13, 0, 458772, 13, 0, 458773, 13, 0, 458774, 13, 0, 458775, 13, 0, 458776, 13, 0, 458777, 13, 0, 458778, 13, 0, 458779, 13, 0, 524301, 13, 0, 524302, 13, 0, 524303, 13, 0, 524304, 13, 0, 524305, 13, 0, 524306, 13, 0, 524307, 13, 0, 524308, 13, 0, 524309, 13, 0, 524310, 13, 0, 524311, 13, 0, 524312, 13, 0, 524313, 13, 0, 524314, 13, 0, 524315, 13, 0, 589837, 13, 0, 589838, 13, 0, 589839, 13, 0, 589840, 13, 0, 589841, 13, 0, 589842, 13, 0, 589843, 13, 0, 589844, 13, 0, 589845, 13, 0, 589846, 13, 0, 589847, 13, 0, 589848, 13, 0, 589849, 13, 0, 589850, 13, 0, 589851, 13, 0, 655373, 13, 0, 655374, 13, 0, 655375, 13, 0, 655376, 13, 0, 655377, 13, 0, 655378, 13, 0, 655379, 13, 0, 655380, 13, 0, 655381, 13, 0, 655382, 13, 0, 655383, 13, 0, 655384, 13, 0, 655385, 13, 0, 655386, 13, 0, 655387, 13, 0, 720909, 13, 0, 720910, 13, 0, 720911, 13, 0, 720912, 13, 0, 720913, 13, 0, 720914, 13, 0, 720915, 13, 0, 720916, 13, 0, 720917, 13, 0, 720918, 13, 0, 720919, 13, 0, 720920, 13, 0, 720921, 13, 0, 720922, 13, 0, 720923, 13, 0, 786445, 13, 0, 786446, 13, 0, 786447, 13, 0, 786448, 13, 0, 786449, 13, 0, 786450, 13, 0, 786451, 13, 0, 786452, 13, 0, 786453, 13, 0, 786454, 13, 0, 786455, 13, 0, 786456, 13, 0, 786457, 13, 0, 786458, 13, 0, 786459, 13, 0, 851981, 13, 0, 851982, 13, 0, 851983, 13, 0, 851984, 13, 0, 851985, 13, 0, 851986, 13, 0, 851987, 13, 0, 851988, 13, 0, 851989, 13, 0, 851990, 13, 0, 851991, 13, 0, 851992, 13, 0, 851993, 13, 0, 851994, 13, 0, 851995, 13, 0, 917517, 13, 0, 917518, 13, 0, 917519, 13, 0, 917520, 13, 0, 917521, 13, 0, 917522, 13, 0, 917523, 13, 0, 917524, 13, 0, 917525, 13, 0, 917526, 13, 0, 917527, 13, 0, 917528, 13, 0, 917529, 13, 0, 917530, 13, 0, 917531, 13, 0, 983053, 13, 0, 983054, 13, 0, 983055, 13, 0, 983056, 13, 0, 983057, 13, 0, 983058, 13, 0, 983059, 13, 0, 983060, 13, 0, 983061, 13, 0, 983062, 13, 0, 983063, 13, 0, 983064, 13, 0, 983065, 13, 0, 983066, 13, 0, 983067, 13, 0, 1048589, 13, 0, 1048590, 13, 0, 1048591, 13, 0, 1048592, 13, 0, 1048593, 13, 0, 1048594, 13, 0, 1048595, 13, 0, 1048596, 13, 0, 1048597, 13, 0, 1048598, 13, 0, 1048599, 13, 0, 1048600, 13, 0, 1048601, 13, 0, 1048602, 13, 0, 1048603, 13, 0, 1114125, 13, 0, 1114126, 13, 0, 1114127, 13, 0, 1114128, 13, 0, 1114129, 13, 0, 1114130, 13, 0, 1114131, 13, 0, 1114132, 13, 0, 1114133, 13, 0, 1114134, 13, 0, 1114135, 13, 0, 1114136, 13, 0, 1114137, 13, 0, 1114138, 13, 0, 1114139, 13, 0, 1179661, 13, 0, 1179662, 13, 0, 1179663, 13, 0, 1179664, 13, 0, 1179665, 13, 0, 1179666, 13, 0, 1179667, 13, 0, 1179668, 13, 0, 1179669, 13, 0, 1179670, 13, 0, 1179671, 13, 0, 1179672, 13, 0, 1179673, 13, 0, 1179674, 13, 0, 1179675, 13, 0, 1245197, 13, 0, 1245198, 13, 0, 1245199, 13, 0, 1245200, 13, 0, 1245201, 13, 0, 1245202, 13, 0, 1245203, 13, 0, 1245204, 13, 0, 1245205, 13, 0, 1245206, 13, 0, 1245207, 13, 0, 1245208, 13, 0, 1245209, 13, 0, 1245210, 13, 0, 1245211, 13, 0, 1310733, 13, 0, 1310734, 13, 0, 1310735, 13, 0, 1310736, 13, 0, 1310737, 13, 0, 1310738, 13, 0, 1310739, 13, 0, 1310740, 13, 0, 1310741, 13, 0, 1310742, 13, 0, 1310743, 13, 0, 1310744, 13, 0, 1310745, 13, 0, 1310746, 13, 0, 1310747, 13, 0, 1376269, 13, 0, 1376270, 13, 0, 1376271, 13, 0, 1376272, 13, 0, 1376273, 13, 0, 1376274, 13, 0, 1376275, 13, 0, 1376276, 13, 0, 1376277, 13, 0, 1376278, 13, 0, 1376279, 13, 0, 1376280, 13, 0, 1376281, 13, 0, 1376282, 13, 0, 1376283, 13, 0 )

[node name="wall" type="TileMap" parent="."]
scale = Vector2( 1.5, 1.5 )
z_index = 2
tile_set = ExtResource( 1 )
cell_size = Vector2( 16, 16 )
format = 1
tile_data = PoolIntArray( 65548, 18, 0, 65564, 19, 0, 131084, 16, 0, 131100, 17, 0, 196620, 16, 0, 196636, 17, 0, 262156, 16, 0, 262172, 17, 0, 327692, 16, 0, 327708, 17, 0, 393228, 16, 0, 393244, 17, 0, 458764, 16, 0, 458780, 17, 0, 524300, 16, 0, 524316, 17, 0, 589836, 16, 0, 589852, 17, 0, 655372, 16, 0, 655388, 17, 0, 720908, 16, 0, 720924, 17, 0, 786444, 16, 0, 786460, 17, 0, 851980, 16, 0, 851996, 17, 0, 917516, 16, 0, 917532, 17, 0, 983052, 16, 0, 983068, 17, 0, 1048588, 16, 0, 1048604, 17, 0, 1114124, 16, 0, 1114140, 17, 0, 1179660, 16, 0, 1179676, 17, 0, 1245196, 16, 0, 1245212, 17, 0, 1310732, 16, 0, 1310748, 17, 0, 1376268, 16, 0, 1376269, 12, 0, 1376270, 10, 0, 1376271, 10, 0, 1376272, 10, 0, 1376273, 10, 0, 1376274, 10, 0, 1376275, 10, 0, 1376276, 10, 0, 1376277, 10, 0, 1376278, 10, 0, 1376279, 10, 0, 1376280, 10, 0, 1376281, 10, 0, 1376282, 12, 0, 1376283, 12, 0, 1376284, 17, 0, 1441804, 23, 0, 1441805, 8, 0, 1441806, 8, 0, 1441807, 8, 0, 1441808, 9, 0, 1441809, 8, 0, 1441810, 8, 0, 1441811, 8, 0, 1441812, 8, 0, 1441813, 8, 0, 1441814, 8, 0, 1441815, 8, 0, 1441816, 8, 0, 1441817, 8, 0, 1441818, 9, 0, 1441819, 8, 0, 1441820, 24, 0 )

[node name="Player" parent="." instance=ExtResource( 2 )]
position = Vector2( 445.228, 518.395 )

[node name="thorns" type="Node2D" parent="."]
editor/display_folded = true

[node name="Thorns" parent="thorns" instance=ExtResource( 3 )]
position = Vector2( 323.91, 443.718 )

[node name="Thorns2" parent="thorns" instance=ExtResource( 3 )]
position = Vector2( 347.91, 443.718 )

[node name="Thorns3" parent="thorns" instance=ExtResource( 3 )]
position = Vector2( 372.91, 443.718 )

[node name="Thorns4" parent="thorns" instance=ExtResource( 3 )]
position = Vector2( 396.91, 443.718 )

[node name="Thorns5" parent="thorns" instance=ExtResource( 3 )]
position = Vector2( 420.91, 443.718 )

[node name="Thorns6" parent="thorns" instance=ExtResource( 3 )]
position = Vector2( 444.91, 420.718 )

[node name="change_room" parent="thorns/Thorns6" instance=ExtResource( 4 )]
position = Vector2( -72.7682, -373.23 )

[node name="Thorns7" parent="thorns" instance=ExtResource( 3 )]
position = Vector2( 468.91, 443.718 )

[node name="Thorns8" parent="thorns" instance=ExtResource( 3 )]
position = Vector2( 492.91, 443.718 )

[node name="Thorns9" parent="thorns" instance=ExtResource( 3 )]
position = Vector2( 516.91, 443.718 )

[node name="Thorns10" parent="thorns" instance=ExtResource( 3 )]
position = Vector2( 540.91, 443.718 )

[node name="Thorns12" parent="thorns" instance=ExtResource( 3 )]
position = Vector2( 588.91, 443.718 )

[node name="Thorns13" parent="thorns" instance=ExtResource( 3 )]
position = Vector2( 612.91, 443.718 )

[node name="Thorns14" parent="thorns" instance=ExtResource( 3 )]
position = Vector2( 636.91, 443.718 )

[node name="Thorns15" parent="thorns" instance=ExtResource( 3 )]
position = Vector2( 659.91, 443.718 )

[node name="Thorns16" parent="thorns" instance=ExtResource( 3 )]
position = Vector2( 659.91, 443.718 )

[node name="Thorns17" parent="thorns" instance=ExtResource( 3 )]
position = Vector2( 467.795, 83.3154 )

[node name="Thorns18" parent="thorns" instance=ExtResource( 3 )]
position = Vector2( 467.795, 108.315 )

[node name="Thorns19" parent="thorns" instance=ExtResource( 3 )]
position = Vector2( 468.795, 132.315 )

[node name="Thorns20" parent="thorns" instance=ExtResource( 3 )]
position = Vector2( 467.795, 132.315 )

[node name="Thorns21" parent="thorns" instance=ExtResource( 3 )]
position = Vector2( 492.795, 132.315 )

[node name="Thorns22" parent="thorns" instance=ExtResource( 3 )]
position = Vector2( 516.795, 132.315 )

[node name="Thorns23" parent="thorns" instance=ExtResource( 3 )]
position = Vector2( 540.795, 132.315 )

[node name="Thorns24" parent="thorns" instance=ExtResource( 3 )]
position = Vector2( 564.795, 132.315 )

[node name="Thorns25" parent="thorns" instance=ExtResource( 3 )]
position = Vector2( 588.795, 132.315 )

[node name="Thorns26" parent="thorns" instance=ExtResource( 3 )]
position = Vector2( 635.795, 132.315 )

[node name="Thorns11" parent="thorns" instance=ExtResource( 5 )]
position = Vector2( 613.124, 132.335 )

[node name="Thorns27" parent="thorns" instance=ExtResource( 3 )]
position = Vector2( 659.795, 132.315 )

[node name="bfs" type="Node2D" parent="."]
editor/display_folded = true

[node name="BrokenFloor" parent="bfs" instance=ExtResource( 6 )]
position = Vector2( 514.866, 107.248 )

[node name="BrokenFloor2" parent="bfs" instance=ExtResource( 6 )]
position = Vector2( 587.201, 83.4147 )

[node name="BrokenFloor3" parent="bfs" instance=ExtResource( 6 )]
position = Vector2( 613.201, 83.4147 )

[node name="EvilChest" parent="." instance=ExtResource( 7 )]
position = Vector2( 516.956, 81.3241 )

[node name="hud_node" parent="." instance=ExtResource( 8 )]

[node name="coins" type="Node2D" parent="."]
editor/display_folded = true

[node name="Coin4" parent="coins" instance=ExtResource( 9 )]
position = Vector2( 370.897, 228.328 )

[node name="Coin" parent="coins" instance=ExtResource( 9 )]
position = Vector2( 564.897, 445.328 )

[node name="Coin2" parent="coins" instance=ExtResource( 9 )]
position = Vector2( 564.897, 227.593 )

[node name="Coin3" parent="coins" instance=ExtResource( 9 )]
position = Vector2( 370.897, 107.328 )

[node name="Enemies" type="Node2D" parent="."]
editor/display_folded = true

[node name="LivingSkull" parent="Enemies" instance=ExtResource( 10 )]
position = Vector2( 347.336, 249.621 )
begin_up = true
begin_left = true

[node name="LivingSkull2" parent="Enemies" instance=ExtResource( 10 )]
position = Vector2( 324.548, 333.422 )

[node name="LivingSkull9" parent="Enemies" instance=ExtResource( 10 )]
position = Vector2( 366.449, 376.792 )
begin_left = true

[node name="LivingSkull10" parent="Enemies" instance=ExtResource( 10 )]
position = Vector2( 434.077, 290.051 )
begin_up = true

[node name="LivingSkull3" parent="Enemies" instance=ExtResource( 10 )]
position = Vector2( 600.943, 189.344 )

[node name="LivingSkull4" parent="Enemies" instance=ExtResource( 10 )]
position = Vector2( 586.977, 370.177 )
begin_up = true
begin_left = true

[node name="LivingSkull5" parent="Enemies" instance=ExtResource( 10 )]
position = Vector2( 511.262, 286.376 )
begin_left = true

[node name="LivingSkull6" parent="Enemies" instance=ExtResource( 10 )]
position = Vector2( 369.184, 77.1705 )
begin_up = true

[node name="LivingSkull7" parent="Enemies" instance=ExtResource( 10 )]
position = Vector2( 434.812, 109.954 )

[node name="LivingSkull8" parent="Enemies" instance=ExtResource( 10 )]
position = Vector2( 636.963, 107.013 )
begin_up = true
begin_left = true
