[gd_scene load_steps=12 format=2]

[ext_resource path="res://Actor/Player/Player.tscn" type="PackedScene" id=1]
[ext_resource path="res://TesTiles.tres" type="TileSet" id=2]
[ext_resource path="res://Traps/BrokenFloor/BrokenFloor.tscn" type="PackedScene" id=3]
[ext_resource path="res://Traps/Thorns/thorns.tscn" type="PackedScene" id=4]
[ext_resource path="res://Itens/Coin/Coin.tscn" type="PackedScene" id=5]
[ext_resource path="res://System/HUD/hud_node.tscn" type="PackedScene" id=6]
[ext_resource path="res://Traps/Hole/Hole.tscn" type="PackedScene" id=7]
[ext_resource path="res://Rooms/Change Room/change_room.tscn" type="PackedScene" id=8]
[ext_resource path="res://Actor/Enemies/LivingSkull/LivingSkull.tscn" type="PackedScene" id=9]
[ext_resource path="res://Actor/Enemies/GoombaDemon/GoombaDemon.tscn" type="PackedScene" id=10]
[ext_resource path="res://Traps/EvilChest/EvilChest.tscn" type="PackedScene" id=11]

[node name="Node2D" type="Control"]
anchor_left = 0.5
anchor_top = 0.5
anchor_right = 0.5
anchor_bottom = 0.5
margin_left = -460.0
margin_top = -300.0
margin_right = -420.0
margin_bottom = -260.0

[node name="Player" parent="." instance=ExtResource( 1 )]
position = Vector2( 127.693, 481.16 )

[node name="floor" type="TileMap" parent="."]
scale = Vector2( 1.5, 1.5 )
tile_set = ExtResource( 2 )
cell_size = Vector2( 16, 16 )
format = 1
tile_data = PoolIntArray( 65537, 18, 0, 65569, 7, 0, 65570, 14, 0, 65571, 6, 0, 65572, 8, 0, 131105, 14, 0, 131106, 14, 0, 131107, 14, 0, 131108, 14, 0, 196641, 14, 0, 196642, 14, 0, 196643, 14, 0, 196644, 14, 0, 262177, 14, 0, 262178, 14, 0, 262179, 14, 0, 262180, 14, 0, 327713, 14, 0, 327714, 14, 0, 327715, 14, 0, 327716, 14, 0, 393249, 14, 0, 393250, 14, 0, 393251, 14, 0, 393252, 14, 0, 458785, 14, 0, 458786, 14, 0, 458787, 14, 0, 458788, 14, 0, 524321, 14, 0, 524322, 14, 0, 524323, 14, 0, 524324, 14, 0, 589826, 8, 0, 589827, 9, 0, 589828, 8, 0, 589829, 8, 0, 589830, 8, 0, 589831, 8, 0, 589832, 9, 0, 589833, 8, 0, 589857, 14, 0, 589858, 14, 0, 589859, 14, 0, 589860, 14, 0, 655362, 14, 0, 655363, 14, 0, 655364, 14, 0, 655365, 14, 0, 655366, 14, 0, 655367, 14, 0, 655368, 14, 0, 655369, 14, 0, 655384, 14, 0, 655385, 14, 0, 655386, 14, 0, 655387, 14, 0, 655393, 14, 0, 655394, 14, 0, 655395, 14, 0, 655396, 14, 0, 720898, 14, 0, 720899, 14, 0, 720900, 14, 0, 720901, 14, 0, 720902, 14, 0, 720903, 14, 0, 720904, 14, 0, 720905, 14, 0, 720920, 14, 0, 720922, 14, 0, 720923, 14, 0, 720929, 14, 0, 720930, 14, 0, 720931, 14, 0, 720932, 14, 0, 786434, 14, 0, 786435, 14, 0, 786436, 14, 0, 786437, 14, 0, 786438, 14, 0, 786439, 14, 0, 786440, 14, 0, 786441, 14, 0, 786456, 14, 0, 786457, 14, 0, 786459, 14, 0, 786461, 14, 0, 786465, 14, 0, 786466, 14, 0, 786467, 14, 0, 786468, 14, 0, 851970, 14, 0, 851971, 14, 0, 851972, 14, 0, 851973, 14, 0, 851974, 14, 0, 851975, 14, 0, 851976, 14, 0, 851977, 14, 0, 851992, 14, 0, 851993, 14, 0, 851994, 14, 0, 851995, 14, 0, 851997, 14, 0, 851999, 23, 0, 852000, 7, 0, 852001, 13, 0, 852002, 14, 0, 852003, 14, 0, 852004, 14, 0, 917506, 14, 0, 917507, 14, 0, 917508, 14, 0, 917509, 14, 0, 917510, 14, 0, 917511, 14, 0, 917512, 14, 0, 917513, 14, 0, 917533, 14, 0, 917534, 14, 0, 917535, 14, 0, 917536, 14, 0, 917537, 14, 0, 917538, 14, 0, 917539, 14, 0, 917540, 14, 0, 983042, 14, 0, 983043, 14, 0, 983044, 14, 0, 983045, 14, 0, 983046, 14, 0, 983047, 14, 0, 983048, 14, 0, 983049, 14, 0, 983073, 14, 0, 983074, 14, 0, 983075, 14, 0, 983076, 14, 0, 1048578, 14, 0, 1048579, 14, 0, 1048580, 14, 0, 1048581, 14, 0, 1048582, 14, 0, 1048583, 14, 0, 1048584, 14, 0, 1048585, 14, 0, 1048609, 14, 0, 1048610, 14, 0, 1048611, 14, 0, 1048612, 14, 0, 1114114, 14, 0, 1114115, 14, 0, 1114116, 14, 0, 1114117, 14, 0, 1114118, 14, 0, 1114119, 14, 0, 1114120, 14, 0, 1114121, 14, 0, 1114145, 14, 0, 1114146, 14, 0, 1114147, 14, 0, 1114148, 14, 0, 1179650, 14, 0, 1179651, 14, 0, 1179652, 14, 0, 1179653, 14, 0, 1179654, 14, 0, 1179655, 14, 0, 1179656, 14, 0, 1179657, 14, 0, 1179681, 14, 0, 1179682, 14, 0, 1179683, 14, 0, 1179684, 14, 0, 1245186, 14, 0, 1245187, 14, 0, 1245188, 14, 0, 1245189, 14, 0, 1245190, 14, 0, 1245191, 14, 0, 1245192, 14, 0, 1245193, 15, 0, 1245194, 6, 0, 1245195, 8, 0, 1245196, 8, 0, 1245197, 8, 0, 1245198, 8, 0, 1245199, 8, 0, 1245200, 8, 0, 1245201, 8, 0, 1245202, 8, 0, 1245203, 8, 0, 1245204, 8, 0, 1245205, 8, 0, 1245206, 8, 0, 1245207, 8, 0, 1245208, 8, 0, 1245209, 8, 0, 1245210, 8, 0, 1245211, 8, 0, 1245212, 8, 0, 1245213, 8, 0, 1245214, 8, 0, 1245215, 8, 0, 1245216, 7, 0, 1245217, 14, 0, 1245218, 14, 0, 1245219, 14, 0, 1245220, 14, 0, 1310722, 14, 0, 1310723, 14, 0, 1310724, 14, 0, 1310725, 14, 0, 1310726, 14, 0, 1310727, 14, 0, 1310728, 14, 0, 1310729, 14, 0, 1310731, 14, 0, 1310732, 14, 0, 1310733, 14, 0, 1310734, 14, 0, 1310735, 14, 0, 1310736, 14, 0, 1310737, 14, 0, 1310739, 14, 0, 1310740, 14, 0, 1310741, 14, 0, 1310743, 14, 0, 1310744, 14, 0, 1310745, 14, 0, 1310746, 14, 0, 1310747, 14, 0, 1310749, 14, 0, 1310750, 14, 0, 1310751, 14, 0, 1310753, 14, 0, 1310754, 14, 0, 1310755, 14, 0, 1310756, 14, 0, 1376258, 14, 0, 1376259, 14, 0, 1376260, 14, 0, 1376261, 14, 0, 1376262, 14, 0, 1376263, 14, 0, 1376264, 14, 0, 1376265, 14, 0, 1376266, 14, 0, 1376267, 14, 0, 1376268, 14, 0, 1376269, 14, 0, 1376270, 14, 0, 1376271, 14, 0, 1376272, 14, 0, 1376273, 14, 0, 1376274, 14, 0, 1376275, 14, 0, 1376276, 14, 0, 1376277, 14, 0, 1376278, 14, 0, 1376279, 14, 0, 1376280, 14, 0, 1376281, 14, 0, 1376282, 14, 0, 1376283, 14, 0, 1376284, 14, 0, 1376285, 14, 0, 1376286, 14, 0, 1376287, 14, 0, 1376288, 14, 0, 1376289, 14, 0, 1376290, 14, 0, 1376291, 14, 0, 1376292, 14, 0, 1441795, 14, 0, 1441796, 14, 0, 1441797, 14, 0, 1441798, 14, 0, 1441799, 14, 0, 1441800, 14, 0, 1441801, 14, 0 )

[node name="wall" type="TileMap" parent="."]
scale = Vector2( 1.5, 1.5 )
z_index = 2
tile_set = ExtResource( 2 )
cell_size = Vector2( 16, 16 )
collision_mask = 3
format = 1
tile_data = PoolIntArray( 32, 18, 0, 33, 1, 0, 35, 0, 0, 36, 10, 0, 37, 19, 0, 65568, 16, 0, 65573, 17, 0, 131104, 16, 0, 131109, 17, 0, 196640, 16, 0, 196645, 17, 0, 262176, 16, 0, 262181, 17, 0, 327712, 16, 0, 327717, 17, 0, 393248, 16, 0, 393253, 17, 0, 458784, 16, 0, 458789, 17, 0, 524289, 18, 0, 524290, 12, 0, 524291, 10, 0, 524292, 10, 0, 524293, 10, 0, 524294, 10, 0, 524295, 10, 0, 524296, 10, 0, 524297, 12, 0, 524298, 19, 0, 524320, 16, 0, 524325, 17, 0, 589825, 16, 0, 589834, 17, 0, 589856, 16, 0, 589861, 17, 0, 655361, 16, 0, 655370, 17, 0, 655392, 16, 0, 655397, 17, 0, 720897, 16, 0, 720906, 17, 0, 720928, 16, 0, 720933, 17, 0, 786433, 16, 0, 786442, 17, 0, 786463, 18, 0, 786464, 5, 0, 786469, 17, 0, 851969, 16, 0, 851978, 17, 0, 852005, 17, 0, 917505, 16, 0, 917514, 17, 0, 917536, 18, 0, 917541, 17, 0, 983041, 16, 0, 983050, 17, 0, 983072, 16, 0, 983077, 17, 0, 1048577, 16, 0, 1048586, 17, 0, 1048608, 16, 0, 1048613, 17, 0, 1114113, 16, 0, 1114122, 17, 0, 1114144, 16, 0, 1114149, 17, 0, 1179649, 16, 0, 1179658, 4, 0, 1179659, 10, 0, 1179660, 10, 0, 1179661, 10, 0, 1179662, 10, 0, 1179663, 10, 0, 1179664, 10, 0, 1179665, 10, 0, 1179666, 10, 0, 1179667, 10, 0, 1179668, 10, 0, 1179669, 10, 0, 1179670, 10, 0, 1179671, 10, 0, 1179672, 10, 0, 1179673, 10, 0, 1179674, 10, 0, 1179675, 10, 0, 1179676, 10, 0, 1179677, 10, 0, 1179678, 10, 0, 1179679, 10, 0, 1179680, 5, 0, 1179685, 17, 0, 1245185, 16, 0, 1245221, 17, 0, 1310721, 16, 0, 1310729, 18, 0, 1310730, 10, 0, 1310731, 10, 0, 1310732, 10, 0, 1310733, 10, 0, 1310734, 10, 0, 1310735, 10, 0, 1310736, 10, 0, 1310737, 10, 0, 1310738, 10, 0, 1310739, 10, 0, 1310740, 10, 0, 1310741, 10, 0, 1310742, 10, 0, 1310743, 10, 0, 1310744, 10, 0, 1310745, 10, 0, 1310746, 10, 0, 1310747, 10, 0, 1310748, 10, 0, 1310749, 10, 0, 1310750, 10, 0, 1310751, 10, 0, 1310752, 10, 0, 1310753, 10, 0, 1310754, 10, 0, 1310755, 10, 0, 1310756, 10, 0, 1310757, 17, 0, 1376257, 16, 0, 1376258, 10, 0, 1376259, 12, 0, 1376260, 12, 0, 1376261, 12, 0, 1376262, 12, 0, 1376263, 12, 0, 1376264, 12, 0, 1376265, 5, 0, 1376266, 8, 0, 1376267, 9, 0, 1376268, 8, 0, 1376269, 8, 0, 1376270, 8, 0, 1376271, 8, 0, 1376272, 8, 0, 1376273, 9, 0, 1376274, 8, 0, 1376275, 8, 0, 1376276, 8, 0, 1376277, 8, 0, 1376278, 8, 0, 1376279, 8, 0, 1376280, 8, 0, 1376281, 8, 0, 1376282, 8, 0, 1376283, 8, 0, 1376284, 8, 0, 1376285, 8, 0, 1376286, 8, 0, 1376287, 8, 0, 1376288, 8, 0, 1376289, 8, 0, 1376290, 8, 0, 1376291, 8, 0, 1376292, 21, 0, 1376293, 24, 0, 1441793, 23, 0, 1441794, 9, 0, 1441795, 8, 0, 1441796, 8, 0, 1441797, 8, 0, 1441798, 8, 0, 1441799, 8, 0, 1441800, 8, 0, 1441801, 7, 0 )

[node name="bfs" type="Node2D" parent="."]
editor/display_folded = true

[node name="BrokenFloor" parent="bfs" instance=ExtResource( 3 )]
position = Vector2( 251.955, 491.622 )

[node name="BrokenFloor2" parent="bfs" instance=ExtResource( 3 )]
position = Vector2( 443.955, 491.622 )

[node name="BrokenFloor3" parent="bfs" instance=ExtResource( 3 )]
position = Vector2( 539.955, 491.622 )

[node name="BrokenFloor4" parent="bfs" instance=ExtResource( 3 )]
position = Vector2( 683.955, 491.622 )

[node name="BrokenFloor5" parent="bfs" instance=ExtResource( 3 )]
position = Vector2( 779.955, 491.622 )

[node name="BrokenFloor6" parent="bfs" instance=ExtResource( 3 )]
position = Vector2( 684, 322.535 )

[node name="BrokenFloor7" parent="bfs" instance=ExtResource( 3 )]
position = Vector2( 684, 298.535 )

[node name="thorns" type="Node2D" parent="."]
editor/display_folded = true

[node name="Thorns" parent="thorns" instance=ExtResource( 4 )]
position = Vector2( 323.929, 491.475 )
start_up = false

[node name="Thorns2" parent="thorns" instance=ExtResource( 4 )]
position = Vector2( 371.929, 491.475 )

[node name="Thorns3" parent="thorns" instance=ExtResource( 4 )]
position = Vector2( 491.929, 491.475 )
start_up = false

[node name="Thorns4" parent="thorns" instance=ExtResource( 4 )]
position = Vector2( 612.929, 491.475 )

[node name="Thorns5" parent="thorns" instance=ExtResource( 4 )]
position = Vector2( 707.929, 491.475 )
start_up = false

[node name="Thorns6" parent="thorns" instance=ExtResource( 4 )]
position = Vector2( 612.363, 275.453 )

[node name="Thorns7" parent="thorns" instance=ExtResource( 4 )]
position = Vector2( 636.363, 300.453 )
start_up = false

[node name="coins" type="Node2D" parent="."]
editor/display_folded = true

[node name="Coin7" parent="coins" instance=ExtResource( 5 )]
position = Vector2( 177.117, 250.556 )

[node name="Coin8" parent="coins" instance=ExtResource( 5 )]
position = Vector2( 154.311, 251.37 )

[node name="Coin9" parent="coins" instance=ExtResource( 5 )]
position = Vector2( 130.69, 250.556 )

[node name="Coin10" parent="coins" instance=ExtResource( 5 )]
position = Vector2( 107.884, 251.37 )

[node name="Coin3" parent="coins" instance=ExtResource( 5 )]
position = Vector2( 586.676, 248.065 )

[node name="Coin14" parent="coins" instance=ExtResource( 5 )]
position = Vector2( 611.676, 248.065 )

[node name="Coin13" parent="coins" instance=ExtResource( 5 )]
position = Vector2( 586.676, 274.065 )

[node name="Coin4" parent="coins" instance=ExtResource( 5 )]
position = Vector2( 586.676, 321.065 )

[node name="Coin12" parent="coins" instance=ExtResource( 5 )]
position = Vector2( 610.676, 321.065 )

[node name="Coin11" parent="coins" instance=ExtResource( 5 )]
position = Vector2( 586.676, 298.065 )

[node name="Coin5" parent="coins" instance=ExtResource( 5 )]
position = Vector2( 659.676, 322.065 )

[node name="Coin18" parent="coins" instance=ExtResource( 5 )]
position = Vector2( 659.676, 300.065 )

[node name="Coin17" parent="coins" instance=ExtResource( 5 )]
position = Vector2( 636.676, 322.065 )

[node name="Coin6" parent="coins" instance=ExtResource( 5 )]
position = Vector2( 659.676, 251.065 )

[node name="Coin16" parent="coins" instance=ExtResource( 5 )]
position = Vector2( 659.676, 275.065 )

[node name="Coin15" parent="coins" instance=ExtResource( 5 )]
position = Vector2( 635.676, 251.065 )

[node name="hud_node" parent="." instance=ExtResource( 6 )]

[node name="holes" type="Node2D" parent="."]
editor/display_folded = true

[node name="Hole" parent="holes" instance=ExtResource( 7 )]
position = Vector2( 562.071, 323.762 )

[node name="Hole13" parent="holes" instance=ExtResource( 7 )]
position = Vector2( 562.071, 346.762 )

[node name="Hole14" parent="holes" instance=ExtResource( 7 )]
position = Vector2( 586.071, 346.762 )

[node name="Hole15" parent="holes" instance=ExtResource( 7 )]
position = Vector2( 610.071, 346.762 )

[node name="Hole16" parent="holes" instance=ExtResource( 7 )]
position = Vector2( 634.071, 348.762 )

[node name="Hole17" parent="holes" instance=ExtResource( 7 )]
position = Vector2( 658.071, 349.762 )

[node name="Hole18" parent="holes" instance=ExtResource( 7 )]
position = Vector2( 682.071, 349.762 )

[node name="Hole19" parent="holes" instance=ExtResource( 7 )]
position = Vector2( 682.071, 374.762 )

[node name="Hole20" parent="holes" instance=ExtResource( 7 )]
position = Vector2( 706.071, 374.762 )

[node name="Hole21" parent="holes" instance=ExtResource( 7 )]
position = Vector2( 731.071, 374.762 )

[node name="Hole22" parent="holes" instance=ExtResource( 7 )]
position = Vector2( 754.071, 374.762 )

[node name="Hole23" parent="holes" instance=ExtResource( 7 )]
position = Vector2( 768.071, 374.762 )

[node name="Hole25" parent="holes" instance=ExtResource( 7 )]
position = Vector2( 754.071, 320.762 )

[node name="Hole26" parent="holes" instance=ExtResource( 7 )]
position = Vector2( 731.071, 320.762 )

[node name="Hole27" parent="holes" instance=ExtResource( 7 )]
position = Vector2( 731.071, 294.762 )

[node name="Hole28" parent="holes" instance=ExtResource( 7 )]
position = Vector2( 711.071, 271.762 )

[node name="Hole2" parent="holes" instance=ExtResource( 7 )]
position = Vector2( 562.071, 300.762 )

[node name="Hole3" parent="holes" instance=ExtResource( 7 )]
position = Vector2( 562.071, 277.762 )

[node name="Hole4" parent="holes" instance=ExtResource( 7 )]
position = Vector2( 562.071, 253.762 )

[node name="Hole5" parent="holes" instance=ExtResource( 7 )]
position = Vector2( 562.071, 227.762 )

[node name="Hole6" parent="holes" instance=ExtResource( 7 )]
position = Vector2( 587.071, 221.762 )

[node name="Hole7" parent="holes" instance=ExtResource( 7 )]
position = Vector2( 609.071, 220.762 )

[node name="Hole8" parent="holes" instance=ExtResource( 7 )]
position = Vector2( 633.071, 221.762 )

[node name="Hole9" parent="holes" instance=ExtResource( 7 )]
position = Vector2( 656.071, 221.762 )

[node name="Hole10" parent="holes" instance=ExtResource( 7 )]
position = Vector2( 679.071, 221.762 )

[node name="Hole11" parent="holes" instance=ExtResource( 7 )]
position = Vector2( 686.071, 249.762 )

[node name="Hole12" parent="holes" instance=ExtResource( 7 )]
position = Vector2( 686.071, 271.762 )

[node name="change_room" parent="." instance=ExtResource( 8 )]
position = Vector2( 827.816, 26.521 )

[node name="Enemies" type="Node2D" parent="."]
editor/display_folded = true
position = Vector2( 127.693, 481.16 )

[node name="LivingSkull" parent="Enemies" instance=ExtResource( 9 )]
position = Vector2( 1.01937, -179.577 )

[node name="LivingSkull2" parent="Enemies" instance=ExtResource( 9 )]
position = Vector2( 19.5928, -209.552 )

[node name="LivingSkull3" parent="Enemies" instance=ExtResource( 9 )]
position = Vector2( -59.2019, -219.922 )

[node name="LivingSkull4" parent="Enemies" instance=ExtResource( 9 )]
position = Vector2( 93.2019, -208.095 )

[node name="LivingSkull5" parent="Enemies" instance=ExtResource( 9 )]
position = Vector2( -63.5084, -149.901 )

[node name="GoombaDemon" parent="Enemies" instance=ExtResource( 10 )]
position = Vector2( 701.311, -381.839 )

[node name="EvilChest" parent="." instance=ExtResource( 11 )]
position = Vector2( 84.116, 248.517 )

[node name="EvilChest2" parent="." instance=ExtResource( 11 )]
position = Vector2( 203.816, 249.467 )
