[gd_scene load_steps=7 format=2]

[ext_resource path="res://TesTiles.tres" type="TileSet" id=1]
[ext_resource path="res://Actor/Player/Player.tscn" type="PackedScene" id=2]
[ext_resource path="res://System/HUD/hud_node.tscn" type="PackedScene" id=3]
[ext_resource path="res://Rooms/Change Room/change_room.tscn" type="PackedScene" id=4]
[ext_resource path="res://Actor/Enemies/LivingSkull/LivingSkull.tscn" type="PackedScene" id=5]
[ext_resource path="res://Itens/Coin/Coin.tscn" type="PackedScene" id=6]

[node name="Node2D" type="Control"]
anchor_left = 0.5
anchor_top = 0.5
anchor_right = 0.5
anchor_bottom = 0.5
margin_left = -460.0
margin_top = -300.0
margin_right = -420.0
margin_bottom = -260.0

[node name="floor" type="TileMap" parent="."]
scale = Vector2( 1.5, 1.5 )
tile_set = ExtResource( 1 )
cell_size = Vector2( 16, 16 )
format = 1
tile_data = PoolIntArray( 327689, 15, 0, 327690, 6, 0, 327691, 8, 0, 327692, 8, 0, 327693, 21, 0, 327694, 8, 0, 327695, 8, 0, 327696, 8, 0, 327697, 8, 0, 327698, 8, 0, 327699, 8, 0, 327700, 8, 0, 327701, 8, 0, 327702, 8, 0, 327703, 8, 0, 327704, 8, 0, 327705, 8, 0, 327706, 8, 0, 327707, 8, 0, 327708, 8, 0, 327709, 8, 0, 393225, 14, 0, 393226, 14, 0, 393229, 14, 0, 393230, 14, 0, 393231, 14, 0, 393232, 14, 0, 393233, 14, 0, 393234, 14, 0, 393237, 14, 0, 393238, 14, 0, 393239, 14, 0, 393240, 14, 0, 393241, 14, 0, 393242, 14, 0, 393245, 14, 0, 393246, 14, 0, 458761, 14, 0, 458762, 14, 0, 458763, 6, 0, 458764, 7, 0, 458765, 14, 0, 458766, 14, 0, 458767, 14, 0, 458768, 14, 0, 458769, 14, 0, 458770, 14, 0, 458771, 6, 0, 458772, 7, 0, 458773, 14, 0, 458774, 14, 0, 458775, 14, 0, 458776, 14, 0, 458777, 14, 0, 458778, 14, 0, 458779, 6, 0, 458780, 7, 0, 458781, 14, 0, 458782, 14, 0, 524297, 14, 0, 524298, 14, 0, 524299, 14, 0, 524300, 14, 0, 524301, 14, 0, 524302, 14, 0, 524305, 14, 0, 524306, 14, 0, 524307, 14, 0, 524308, 14, 0, 524309, 14, 0, 524310, 14, 0, 524313, 13, 0, 524314, 14, 0, 524315, 14, 0, 524316, 14, 0, 524317, 14, 0, 524318, 14, 0, 589833, 14, 0, 589834, 14, 0, 589835, 14, 0, 589836, 14, 0, 589837, 14, 0, 589838, 14, 0, 589839, 6, 0, 589840, 7, 0, 589841, 14, 0, 589842, 14, 0, 589843, 14, 0, 589844, 14, 0, 589845, 14, 0, 589846, 14, 0, 589847, 6, 0, 589848, 7, 0, 589849, 14, 0, 589850, 14, 0, 589851, 14, 0, 589852, 14, 0, 589853, 14, 0, 589854, 14, 0, 655369, 14, 0, 655370, 14, 0, 655373, 14, 0, 655374, 14, 0, 655375, 14, 0, 655376, 14, 0, 655377, 14, 0, 655378, 14, 0, 655381, 14, 0, 655382, 14, 0, 655383, 14, 0, 655384, 14, 0, 655385, 14, 0, 655386, 14, 0, 655389, 14, 0, 655390, 14, 0, 720905, 14, 0, 720906, 14, 0, 720907, 6, 0, 720908, 7, 0, 720909, 14, 0, 720910, 14, 0, 720911, 14, 0, 720912, 14, 0, 720913, 14, 0, 720914, 14, 0, 720915, 6, 0, 720916, 7, 0, 720917, 14, 0, 720918, 14, 0, 720919, 14, 0, 720920, 14, 0, 720921, 14, 0, 720922, 14, 0, 720923, 6, 0, 720924, 7, 0, 720925, 14, 0, 720926, 14, 0, 786441, 14, 0, 786442, 14, 0, 786443, 14, 0, 786444, 14, 0, 786445, 14, 0, 786446, 14, 0, 786447, 8, 0, 786448, 8, 0, 786449, 14, 0, 786450, 14, 0, 786451, 14, 0, 786452, 14, 0, 786453, 14, 0, 786454, 14, 0, 786455, 8, 0, 786456, 8, 0, 786457, 14, 0, 786458, 14, 0, 786459, 14, 0, 786460, 14, 0, 786461, 14, 0, 786462, 14, 0, 851977, 14, 0, 851978, 14, 0, 851979, 14, 0, 851980, 14, 0, 851981, 14, 0, 851982, 14, 0, 851985, 14, 0, 851986, 14, 0, 851987, 14, 0, 851988, 14, 0, 851989, 14, 0, 851990, 14, 0, 851993, 14, 0, 851994, 14, 0, 851995, 14, 0, 851996, 14, 0, 851997, 14, 0, 851998, 15, 0, 917513, 14, 0, 917514, 14, 0, 917517, 14, 0, 917518, 14, 0, 917521, 14, 0, 917522, 14, 0, 917525, 14, 0, 917526, 14, 0, 917529, 14, 0, 917530, 14, 0, 917533, 14, 0, 917534, 14, 0, 983049, 14, 0, 983050, 14, 0, 983051, 6, 0, 983052, 7, 0, 983053, 14, 0, 983054, 14, 0, 983057, 13, 0, 983058, 15, 0, 983059, 6, 0, 983060, 7, 0, 983061, 14, 0, 983062, 13, 0, 983065, 14, 0, 983066, 14, 0, 983067, 6, 0, 983068, 7, 0, 983069, 14, 0, 983070, 13, 0, 1048585, 14, 0, 1048586, 14, 0, 1048587, 14, 0, 1048588, 14, 0, 1048589, 14, 0, 1048590, 14, 0, 1048593, 13, 0, 1048594, 14, 0, 1048595, 14, 0, 1048596, 14, 0, 1048597, 14, 0, 1048598, 14, 0, 1048601, 14, 0, 1048602, 14, 0, 1048603, 14, 0, 1048604, 14, 0, 1048605, 14, 0, 1048606, 15, 0, 1114130, 14, 0, 1114134, 14, 0 )

[node name="walls" type="TileMap" parent="."]
scale = Vector2( 1.5, 1.5 )
z_index = 2
tile_set = ExtResource( 1 )
cell_size = Vector2( 16, 16 )
format = 1
tile_data = PoolIntArray( 262152, 18, 0, 262154, 11, 0, 262155, 10, 0, 262156, 10, 0, 262157, 10, 0, 262158, 10, 0, 262159, 10, 0, 262160, 10, 0, 262161, 10, 0, 262162, 10, 0, 262163, 10, 0, 262164, 10, 0, 262165, 10, 0, 262166, 10, 0, 262167, 10, 0, 262168, 10, 0, 262169, 10, 0, 262170, 10, 0, 262171, 10, 0, 262172, 10, 0, 262173, 10, 0, 262174, 10, 0, 262175, 19, 0, 327688, 16, 0, 327691, 0, 0, 327692, 1, 0, 327699, 0, 0, 327700, 1, 0, 327707, 0, 0, 327708, 1, 0, 327710, 8, 0, 327711, 17, 0, 393224, 16, 0, 393227, 4, 0, 393228, 5, 0, 393235, 4, 0, 393236, 5, 0, 393243, 4, 0, 393244, 5, 0, 393247, 17, 0, 458760, 16, 0, 458767, 0, 0, 458768, 1, 0, 458775, 0, 0, 458776, 1, 0, 458783, 17, 0, 524296, 16, 0, 524303, 4, 0, 524304, 5, 0, 524311, 4, 0, 524312, 5, 0, 524319, 17, 0, 589832, 16, 0, 589835, 0, 0, 589836, 1, 0, 589843, 0, 0, 589844, 1, 0, 589851, 0, 0, 589852, 1, 0, 589855, 17, 0, 655368, 16, 0, 655371, 4, 0, 655372, 5, 0, 655379, 4, 0, 655380, 5, 0, 655387, 4, 0, 655388, 5, 0, 655391, 17, 0, 720904, 16, 0, 720911, 11, 0, 720912, 1, 0, 720919, 11, 0, 720920, 1, 0, 720927, 17, 0, 786440, 16, 0, 786447, 17, 0, 786448, 16, 0, 786455, 17, 0, 786456, 16, 0, 786463, 17, 0, 851976, 16, 0, 851979, 0, 0, 851980, 1, 0, 851983, 17, 0, 851984, 16, 0, 851987, 0, 0, 851988, 1, 0, 851991, 17, 0, 851992, 16, 0, 851995, 0, 0, 851996, 1, 0, 851999, 17, 0, 917512, 16, 0, 917515, 4, 0, 917516, 5, 0, 917519, 17, 0, 917520, 16, 0, 917523, 4, 0, 917524, 5, 0, 917527, 17, 0, 917528, 16, 0, 917531, 4, 0, 917532, 5, 0, 917535, 17, 0, 983048, 16, 0, 983055, 17, 0, 983056, 16, 0, 983063, 17, 0, 983064, 16, 0, 983071, 17, 0, 1048584, 16, 0, 1048585, 10, 0, 1048586, 10, 0, 1048587, 10, 0, 1048588, 10, 0, 1048589, 10, 0, 1048590, 10, 0, 1048591, 17, 0, 1048592, 16, 0, 1048593, 10, 0, 1048594, 12, 0, 1048595, 12, 0, 1048596, 12, 0, 1048597, 12, 0, 1048598, 10, 0, 1048599, 17, 0, 1048600, 16, 0, 1048601, 10, 0, 1048602, 12, 0, 1048603, 12, 0, 1048604, 12, 0, 1048605, 12, 0, 1048606, 10, 0, 1048607, 17, 0, 1114120, 23, 0, 1114121, 8, 0, 1114122, 8, 0, 1114123, 8, 0, 1114124, 8, 0, 1114125, 8, 0, 1114126, 8, 0, 1114127, 24, 0, 1114128, 23, 0, 1114129, 8, 0, 1114130, 8, 0, 1114131, 8, 0, 1114132, 8, 0, 1114133, 8, 0, 1114134, 8, 0, 1114135, 24, 0, 1114136, 23, 0, 1114137, 8, 0, 1114138, 9, 0, 1114139, 8, 0, 1114140, 8, 0, 1114141, 8, 0, 1114142, 8, 0, 1114143, 24, 0 )

[node name="Player" parent="." instance=ExtResource( 2 )]
position = Vector2( 708.953, 395.151 )

[node name="hud_node" parent="." instance=ExtResource( 3 )]

[node name="change_room" parent="." instance=ExtResource( 4 )]
position = Vector2( 227.672, 120.504 )
scale = Vector2( 1.5, 1.5 )

[node name="Enemies" type="Node2D" parent="."]
editor/display_folded = true

[node name="LivingSkull3" parent="Enemies" instance=ExtResource( 5 )]
position = Vector2( 337.421, 240.737 )

[node name="LivingSkull7" parent="Enemies" instance=ExtResource( 5 )]
position = Vector2( 465.452, 202.139 )

[node name="LivingSkull4" parent="Enemies" instance=ExtResource( 5 )]
position = Vector2( 524.789, 279.684 )

[node name="LivingSkull8" parent="Enemies" instance=ExtResource( 5 )]
position = Vector2( 467.452, 392.888 )

[node name="LivingSkull9" parent="Enemies" instance=ExtResource( 5 )]
position = Vector2( 445.4, 298.061 )

[node name="LivingSkull10" parent="Enemies" instance=ExtResource( 5 )]
position = Vector2( 249.865, 345.842 )

[node name="LivingSkull13" parent="Enemies" instance=ExtResource( 5 )]
position = Vector2( 252.805, 223.082 )

[node name="LivingSkull11" parent="Enemies" instance=ExtResource( 5 )]
position = Vector2( 323.374, 345.842 )

[node name="LivingSkull5" parent="Enemies" instance=ExtResource( 5 )]
position = Vector2( 712.158, 203.895 )

[node name="LivingSkull14" parent="Enemies" instance=ExtResource( 5 )]
position = Vector2( 612.158, 253.895 )

[node name="LivingSkull16" parent="Enemies" instance=ExtResource( 5 )]
position = Vector2( 681.158, 321.895 )

[node name="LivingSkull6" parent="Enemies" instance=ExtResource( 5 )]
position = Vector2( 373.21, 156.526 )

[node name="Coins" type="Node2D" parent="."]
editor/display_folded = true

[node name="Coin" parent="Coins" instance=ExtResource( 6 )]
position = Vector2( 227.299, 394.041 )

[node name="Coin2" parent="Coins" instance=ExtResource( 6 )]
position = Vector2( 250.087, 395.511 )

[node name="Coin3" parent="Coins" instance=ExtResource( 6 )]
position = Vector2( 274.345, 395.511 )

[node name="Coin4" parent="Coins" instance=ExtResource( 6 )]
position = Vector2( 299.338, 395.511 )

[node name="Coin5" parent="Coins" instance=ExtResource( 6 )]
position = Vector2( 323.596, 394.776 )

[node name="Coin6" parent="Coins" instance=ExtResource( 6 )]
position = Vector2( 345.649, 394.041 )

[node name="Coin7" parent="Coins" instance=ExtResource( 6 )]
position = Vector2( 346.384, 370.518 )

[node name="Coin8" parent="Coins" instance=ExtResource( 6 )]
position = Vector2( 225.094, 369.783 )

[node name="Coin9" parent="Coins" instance=ExtResource( 6 )]
position = Vector2( 249.352, 370.518 )

[node name="Coin10" parent="Coins" instance=ExtResource( 6 )]
position = Vector2( 323.596, 371.988 )
