[gd_scene load_steps=7 format=2]

[ext_resource path="res://Rooms/Change Room/change_room.tscn" type="PackedScene" id=1]
[ext_resource path="res://Actor/Player/Player.tscn" type="PackedScene" id=2]
[ext_resource path="res://System/HUD/hud_node.tscn" type="PackedScene" id=3]
[ext_resource path="res://TesTiles.tres" type="TileSet" id=4]
[ext_resource path="res://Traps/Thorns/thorns.tscn" type="PackedScene" id=5]
[ext_resource path="res://Itens/Coin/Coin.tscn" type="PackedScene" id=6]

[node name="Node2D" type="Control"]
anchor_left = 0.5
anchor_top = 0.5
anchor_right = 0.5
anchor_bottom = 0.5

[node name="change_room" parent="." instance=ExtResource( 1 )]
position = Vector2( -190, -60 )
scale = Vector2( 1.5, 1.5 )

[node name="Player" parent="." instance=ExtResource( 2 )]
position = Vector2( 150, 130 )

[node name="hud_node" parent="." instance=ExtResource( 3 )]
position = Vector2( -460, -300 )

[node name="floor" type="TileMap" parent="."]
scale = Vector2( 1.5, 1.5 )
tile_set = ExtResource( 4 )
cell_size = Vector2( 16, 16 )
format = 1
tile_data = PoolIntArray( -393220, 8, 0, -393219, 8, 0, -393218, 8, 0, -393217, 9, 0, -458752, 8, 0, -458751, 8, 0, -458750, 8, 0, -458749, 8, 0, -458748, 9, 0, -458747, 8, 0, -458746, 8, 0, -327684, 14, 0, -327683, 14, 0, -327682, 14, 0, -327681, 14, 0, -393216, 14, 0, -393215, 14, 0, -393214, 14, 0, -393213, 14, 0, -393212, 14, 0, -393211, 14, 0, -393210, 14, 0, -262148, 14, 0, -262147, 14, 0, -262146, 14, 0, -262145, 14, 0, -327680, 14, 0, -327679, 14, 0, -327678, 14, 0, -327677, 14, 0, -327676, 14, 0, -327675, 14, 0, -327674, 14, 0, -196617, 23, 0, -196616, 8, 0, -196615, 8, 0, -196614, 8, 0, -196613, 8, 0, -196612, 14, 0, -196611, 14, 0, -196610, 14, 0, -196609, 14, 0, -262144, 14, 0, -262143, 14, 0, -262142, 14, 0, -262141, 14, 0, -262140, 14, 0, -262139, 14, 0, -262138, 14, 0, -131080, 14, 0, -131079, 15, 0, -131078, 14, 0, -131077, 14, 0, -131076, 14, 0, -131075, 14, 0, -131074, 14, 0, -131073, 14, 0, -196608, 14, 0, -196607, 14, 0, -196606, 14, 0, -196605, 14, 0, -196604, 14, 0, -196603, 14, 0, -196602, 14, 0, -65542, 14, 0, -65541, 14, 0, -65540, 14, 0, -65539, 14, 0, -65538, 14, 0, -65537, 14, 0, -131072, 14, 0, -131071, 14, 0, -131070, 14, 0, -131069, 14, 0, -131068, 14, 0, -131067, 14, 0, -131066, 14, 0, -4, 14, 0, -3, 14, 0, -2, 14, 0, -1, 14, 0, -65536, 14, 0, -65535, 14, 0, -65534, 14, 0, -65533, 14, 0, -65532, 14, 0, -65531, 14, 0, -65530, 14, 0, 65532, 14, 0, 65533, 14, 0, 65534, 14, 0, 65535, 14, 0, 0, 14, 0, 1, 14, 0, 2, 14, 0, 3, 14, 0, 4, 14, 0, 5, 14, 0, 6, 14, 0, 131068, 14, 0, 131069, 14, 0, 131070, 14, 0, 131071, 14, 0, 65536, 14, 0, 65537, 14, 0, 65538, 14, 0, 65539, 14, 0, 65540, 14, 0, 65541, 14, 0, 65542, 14, 0, 196604, 14, 0, 196605, 14, 0, 196606, 14, 0, 196607, 14, 0, 131072, 14, 0, 131073, 14, 0, 131074, 14, 0, 131075, 14, 0, 131076, 14, 0, 131077, 14, 0, 131078, 14, 0, 262140, 14, 0, 262141, 14, 0, 262142, 14, 0, 262143, 14, 0, 196608, 14, 0, 196609, 14, 0, 196610, 14, 0, 196611, 14, 0, 196612, 14, 0, 196613, 14, 0, 196614, 14, 0, 327676, 14, 0, 327677, 14, 0, 327678, 14, 0, 327679, 14, 0, 262144, 14, 0, 262145, 14, 0, 262146, 14, 0, 262147, 14, 0, 262148, 14, 0, 262149, 14, 0, 262150, 14, 0, 393212, 14, 0, 393213, 14, 0, 393214, 14, 0, 393215, 14, 0, 327680, 14, 0, 327681, 14, 0, 327682, 14, 0, 327683, 14, 0, 327684, 14, 0, 327685, 14, 0, 327686, 14, 0 )

[node name="wall" type="TileMap" parent="."]
scale = Vector2( 1.5, 1.5 )
z_index = 2
tile_set = ExtResource( 4 )
cell_size = Vector2( 16, 16 )
collision_mask = 3
format = 1
tile_data = PoolIntArray( -458757, 18, 0, -458756, 12, 0, -458755, 12, 0, -458754, 12, 0, -458753, 12, 0, -524288, 12, 0, -524287, 12, 0, -524286, 12, 0, -524285, 12, 0, -524284, 12, 0, -524283, 12, 0, -524282, 12, 0, -524281, 19, 0, -393221, 16, 0, -458745, 17, 0, -327685, 16, 0, -393209, 17, 0, -262153, 18, 0, -262152, 10, 0, -262151, 10, 0, -262150, 10, 0, -262149, 5, 0, -327673, 17, 0, -262137, 17, 0, -131081, 18, 0, -131080, 10, 0, -131079, 10, 0, -131078, 10, 0, -131077, 1, 0, -196601, 17, 0, -65545, 23, 0, -65544, 8, 0, -65543, 8, 0, -65542, 8, 0, -65541, 3, 0, -131065, 17, 0, -5, 16, 0, -65529, 17, 0, 65531, 16, 0, 7, 17, 0, 131067, 16, 0, 65543, 17, 0, 196603, 16, 0, 131079, 17, 0, 262139, 16, 0, 196615, 17, 0, 327675, 16, 0, 262151, 17, 0, 393211, 16, 0, 393212, 10, 0, 393213, 12, 0, 393214, 12, 0, 393215, 12, 0, 327680, 12, 0, 327681, 12, 0, 327682, 12, 0, 327683, 12, 0, 327684, 12, 0, 327685, 12, 0, 327686, 12, 0, 327687, 17, 0, 458747, 23, 0, 458748, 8, 0, 458749, 8, 0, 458750, 8, 0, 458751, 8, 0, 393216, 8, 0, 393217, 8, 0, 393218, 8, 0, 393219, 8, 0, 393220, 8, 0, 393221, 8, 0, 393222, 8, 0, 393223, 24, 0 )

[node name="Throns" type="Node2D" parent="."]
editor/display_folded = true

[node name="Area2D4" parent="Throns" instance=ExtResource( 5 )]
position = Vector2( -84, 84 )
start_up = false

[node name="Area2D15" parent="Throns" instance=ExtResource( 5 )]
position = Vector2( -84, 60 )

[node name="Area2D31" parent="Throns" instance=ExtResource( 5 )]
position = Vector2( -84, 36 )
start_up = false

[node name="Area2D41" parent="Throns" instance=ExtResource( 5 )]
position = Vector2( -84, 12 )

[node name="Area2D50" parent="Throns" instance=ExtResource( 5 )]
position = Vector2( -84, -12 )
start_up = false

[node name="Area2D61" parent="Throns" instance=ExtResource( 5 )]
position = Vector2( -84, -37 )

[node name="Area2D68" parent="Throns" instance=ExtResource( 5 )]
position = Vector2( -84, -60 )
start_up = false

[node name="Area2D83" parent="Throns" instance=ExtResource( 5 )]
position = Vector2( -84, -84 )

[node name="Area2D89" parent="Throns" instance=ExtResource( 5 )]
position = Vector2( -84, -108 )
start_up = false

[node name="Area2D5" parent="Throns" instance=ExtResource( 5 )]
position = Vector2( -60, 84 )

[node name="Area2D88" parent="Throns" instance=ExtResource( 5 )]
position = Vector2( -60, -108 )

[node name="Area2D6" parent="Throns" instance=ExtResource( 5 )]
position = Vector2( -36, 84 )
start_up = false

[node name="Area2D32" parent="Throns" instance=ExtResource( 5 )]
position = Vector2( -36, 36 )

[node name="Area2D34" parent="Throns" instance=ExtResource( 5 )]
position = Vector2( -36, 11 )
start_up = false

[node name="Area2D52" parent="Throns" instance=ExtResource( 5 )]
position = Vector2( -36, -13 )

[node name="Area2D55" parent="Throns" instance=ExtResource( 5 )]
position = Vector2( -36, -37 )
start_up = false

[node name="Area2D64" parent="Throns" instance=ExtResource( 5 )]
position = Vector2( -36, -60 )

[node name="Area2D91" parent="Throns" instance=ExtResource( 5 )]
position = Vector2( -36, -108 )
start_up = false

[node name="Area2D7" parent="Throns" instance=ExtResource( 5 )]
position = Vector2( -12, 84 )

[node name="Area2D33" parent="Throns" instance=ExtResource( 5 )]
position = Vector2( -12, 36 )
start_up = false

[node name="Area2D73" parent="Throns" instance=ExtResource( 5 )]
position = Vector2( -12, -60 )
start_up = false

[node name="Area2D87" parent="Throns" instance=ExtResource( 5 )]
position = Vector2( -12, -108 )

[node name="Area2D8" parent="Throns" instance=ExtResource( 5 )]
position = Vector2( 12, 84 )
start_up = false

[node name="Area2D26" parent="Throns" instance=ExtResource( 5 )]
position = Vector2( 12, 36 )

[node name="Area2D46" parent="Throns" instance=ExtResource( 5 )]
position = Vector2( 12, -12 )

[node name="Area2D69" parent="Throns" instance=ExtResource( 5 )]
position = Vector2( 12, -60 )

[node name="Area2D93" parent="Throns" instance=ExtResource( 5 )]
position = Vector2( 12, -108 )
start_up = false

[node name="Area2D9" parent="Throns" instance=ExtResource( 5 )]
position = Vector2( 36, 84 )

[node name="Area2D24" parent="Throns" instance=ExtResource( 5 )]
position = Vector2( 36, 36 )
start_up = false

[node name="Area2D45" parent="Throns" instance=ExtResource( 5 )]
position = Vector2( 60, -12 )

[node name="Area2D71" parent="Throns" instance=ExtResource( 5 )]
position = Vector2( 36, -60 )
start_up = false

[node name="Area2D85" parent="Throns" instance=ExtResource( 5 )]
position = Vector2( 36, -108 )

[node name="Area2D10" parent="Throns" instance=ExtResource( 5 )]
position = Vector2( 60, 84 )
start_up = false

[node name="Area2D25" parent="Throns" instance=ExtResource( 5 )]
position = Vector2( 60, 36 )

[node name="Area2D66" parent="Throns" instance=ExtResource( 5 )]
position = Vector2( 60, -60 )

[node name="Area2D92" parent="Throns" instance=ExtResource( 5 )]
position = Vector2( 60, -108 )
start_up = false

[node name="Area2D11" parent="Throns" instance=ExtResource( 5 )]
position = Vector2( 84, 84 )

[node name="Area2D28" parent="Throns" instance=ExtResource( 5 )]
position = Vector2( 84, 36 )
start_up = false

[node name="Area2D29" parent="Throns" instance=ExtResource( 5 )]
position = Vector2( 109, 36 )

[node name="Area2D43" parent="Throns" instance=ExtResource( 5 )]
position = Vector2( 108, 12 )
start_up = false

[node name="Area2D51" parent="Throns" instance=ExtResource( 5 )]
position = Vector2( 108, -12 )

[node name="Area2D62" parent="Throns" instance=ExtResource( 5 )]
position = Vector2( 108, -36 )
start_up = false

[node name="Area2D67" parent="Throns" instance=ExtResource( 5 )]
position = Vector2( 84, -60 )
start_up = false

[node name="Area2D72" parent="Throns" instance=ExtResource( 5 )]
position = Vector2( 108, -60 )

[node name="Area2D90" parent="Throns" instance=ExtResource( 5 )]
position = Vector2( 84, -108 )

[node name="Area2D12" parent="Throns" instance=ExtResource( 5 )]
position = Vector2( 108, 84 )
start_up = false

[node name="Area2D86" parent="Throns" instance=ExtResource( 5 )]
position = Vector2( 108, -108 )
start_up = false

[node name="Area2D13" parent="Throns" instance=ExtResource( 5 )]
position = Vector2( 132, 84 )

[node name="Area2D14" parent="Throns" instance=ExtResource( 5 )]
position = Vector2( 156, 84 )
start_up = false

[node name="Area2D23" parent="Throns" instance=ExtResource( 5 )]
position = Vector2( 156, 60 )

[node name="Area2D27" parent="Throns" instance=ExtResource( 5 )]
position = Vector2( 156, 36 )
start_up = false

[node name="Area2D40" parent="Throns" instance=ExtResource( 5 )]
position = Vector2( 156, 11 )

[node name="Area2D47" parent="Throns" instance=ExtResource( 5 )]
position = Vector2( 156, -13 )
start_up = false

[node name="Area2D58" parent="Throns" instance=ExtResource( 5 )]
position = Vector2( 156, -37 )

[node name="Area2D70" parent="Throns" instance=ExtResource( 5 )]
position = Vector2( 156, -60 )
start_up = false

[node name="Area2D80" parent="Throns" instance=ExtResource( 5 )]
position = Vector2( 156, -84 )

[node name="Area2D81" parent="Throns" instance=ExtResource( 5 )]
position = Vector2( 156, -108 )
start_up = false

[node name="Area2D84" parent="Throns" instance=ExtResource( 5 )]
position = Vector2( 132, -108 )

[node name="Coins" type="Node2D" parent="."]
editor/display_folded = true

[node name="Coin" parent="Coins" instance=ExtResource( 6 )]
position = Vector2( -12, -12 )

[node name="Coin2" parent="Coins" instance=ExtResource( 6 )]
position = Vector2( -12, -37 )

[node name="Coin3" parent="Coins" instance=ExtResource( 6 )]
position = Vector2( 11, -37 )

[node name="Coin4" parent="Coins" instance=ExtResource( 6 )]
position = Vector2( 36, -37 )

[node name="Coin5" parent="Coins" instance=ExtResource( 6 )]
position = Vector2( 59, -37 )

[node name="Coin6" parent="Coins" instance=ExtResource( 6 )]
position = Vector2( 84, -37 )

[node name="Coin7" parent="Coins" instance=ExtResource( 6 )]
position = Vector2( 84, -13 )

[node name="Coin8" parent="Coins" instance=ExtResource( 6 )]
position = Vector2( 84, 11 )

[node name="Coin9" parent="Coins" instance=ExtResource( 6 )]
position = Vector2( 60, 11 )

[node name="Coin10" parent="Coins" instance=ExtResource( 6 )]
position = Vector2( 36, 11 )

[node name="Coin13" parent="Coins" instance=ExtResource( 6 )]
position = Vector2( 36, -13 )

[node name="Coin11" parent="Coins" instance=ExtResource( 6 )]
position = Vector2( 12, 11 )

[node name="Coin12" parent="Coins" instance=ExtResource( 6 )]
position = Vector2( -12, 11 )
